%YAML 1.1
%TAG !u! tag:unity3d.com,2011:
--- !u!1001 &138855041553744555
PrefabInstance:
  m_ObjectHideFlags: 0
  serializedVersion: 2
  m_Modification:
    m_TransformParent: {fileID: 0}
    m_Modifications:
    - target: {fileID: 1681540004173610464, guid: 7c8663bd991d2a649a14cea04fa0d1f8,
        type: 3}
      propertyPath: m_LocalPosition.x
      value: 0
      objectReference: {fileID: 0}
    - target: {fileID: 1681540004173610464, guid: 7c8663bd991d2a649a14cea04fa0d1f8,
        type: 3}
      propertyPath: m_LocalPosition.y
      value: 0
      objectReference: {fileID: 0}
    - target: {fileID: 1681540004173610464, guid: 7c8663bd991d2a649a14cea04fa0d1f8,
        type: 3}
      propertyPath: m_LocalPosition.z
      value: 0
      objectReference: {fileID: 0}
    - target: {fileID: 1681540004173610464, guid: 7c8663bd991d2a649a14cea04fa0d1f8,
        type: 3}
      propertyPath: m_LocalRotation.x
      value: 0
      objectReference: {fileID: 0}
    - target: {fileID: 1681540004173610464, guid: 7c8663bd991d2a649a14cea04fa0d1f8,
        type: 3}
      propertyPath: m_LocalRotation.y
      value: 0
      objectReference: {fileID: 0}
    - target: {fileID: 1681540004173610464, guid: 7c8663bd991d2a649a14cea04fa0d1f8,
        type: 3}
      propertyPath: m_LocalRotation.z
      value: 0
      objectReference: {fileID: 0}
    - target: {fileID: 1681540004173610464, guid: 7c8663bd991d2a649a14cea04fa0d1f8,
        type: 3}
      propertyPath: m_LocalRotation.w
      value: 1
      objectReference: {fileID: 0}
    - target: {fileID: 1681540004173610464, guid: 7c8663bd991d2a649a14cea04fa0d1f8,
        type: 3}
      propertyPath: m_RootOrder
      value: 0
      objectReference: {fileID: 0}
    - target: {fileID: 1681540004173610464, guid: 7c8663bd991d2a649a14cea04fa0d1f8,
        type: 3}
      propertyPath: m_LocalEulerAnglesHint.x
      value: 0
      objectReference: {fileID: 0}
    - target: {fileID: 1681540004173610464, guid: 7c8663bd991d2a649a14cea04fa0d1f8,
        type: 3}
      propertyPath: m_LocalEulerAnglesHint.y
      value: 0
      objectReference: {fileID: 0}
    - target: {fileID: 1681540004173610464, guid: 7c8663bd991d2a649a14cea04fa0d1f8,
        type: 3}
      propertyPath: m_LocalEulerAnglesHint.z
      value: 0
      objectReference: {fileID: 0}
    - target: {fileID: 1681540004173610465, guid: 7c8663bd991d2a649a14cea04fa0d1f8,
        type: 3}
      propertyPath: m_Name
      value: stok
      objectReference: {fileID: 0}
    - target: {fileID: 2031645110000327108, guid: 7c8663bd991d2a649a14cea04fa0d1f8,
        type: 3}
      propertyPath: m_RootOrder
      value: 1
      objectReference: {fileID: 0}
    - target: {fileID: 8121000327901224427, guid: 7c8663bd991d2a649a14cea04fa0d1f8,
        type: 3}
      propertyPath: pipeType
      value: Stok
      objectReference: {fileID: 0}
    - target: {fileID: 117693591024671721, guid: 7c8663bd991d2a649a14cea04fa0d1f8,
        type: 3}
      propertyPath: m_IsActive
      value: 0
      objectReference: {fileID: 0}
    m_RemovedComponents: []
  m_SourcePrefab: {fileID: 100100000, guid: 7c8663bd991d2a649a14cea04fa0d1f8, type: 3}
